^C:\USERS\ANDREAS\DESKTOP\VULKAN2D\VULKAN2D\RENDERABLE.CPP
/c /I"C:\GLFW-3.2.1.BIN.WIN64\GLFW-3.2.1.BIN.WIN64\INCLUDE" /I"C:\GLM-0.9.8.4\GLM" /IC:\VULKANSDK\1.0.46.0\INCLUDE /ZI /nologo /W3 /WX- /Od /D _DEBUG /D _CONSOLE /D _UNICODE /D UNICODE /Gm /EHsc /RTC1 /MDd /GS /fp:precise /Zc:wchar_t /Zc:forScope /Zc:inline /Fo"X64\DEBUG\\" /Fd"X64\DEBUG\VC140.PDB" /Gd /TP C:\USERS\ANDREAS\DESKTOP\VULKAN2D\VULKAN2D\RENDERABLE.CPP
^C:\USERS\ANDREAS\DESKTOP\VULKAN2D\VULKAN2D\SCENE.CPP
/c /I"C:\GLFW-3.2.1.BIN.WIN64\GLFW-3.2.1.BIN.WIN64\INCLUDE" /I"C:\GLM-0.9.8.4\GLM" /IC:\VULKANSDK\1.0.46.0\INCLUDE /ZI /nologo /W3 /WX- /Od /D _DEBUG /D _CONSOLE /D _UNICODE /D UNICODE /Gm /EHsc /RTC1 /MDd /GS /fp:precise /Zc:wchar_t /Zc:forScope /Zc:inline /Fo"X64\DEBUG\\" /Fd"X64\DEBUG\VC140.PDB" /Gd /TP C:\USERS\ANDREAS\DESKTOP\VULKAN2D\VULKAN2D\SCENE.CPP
^C:\USERS\ANDREAS\DESKTOP\VULKAN2D\VULKAN2D\SHADERHANDLER.CPP
/c /I"C:\GLFW-3.2.1.BIN.WIN64\GLFW-3.2.1.BIN.WIN64\INCLUDE" /I"C:\GLM-0.9.8.4\GLM" /IC:\VULKANSDK\1.0.46.0\INCLUDE /ZI /nologo /W3 /WX- /Od /D _DEBUG /D _CONSOLE /D _UNICODE /D UNICODE /Gm /EHsc /RTC1 /MDd /GS /fp:precise /Zc:wchar_t /Zc:forScope /Zc:inline /Fo"X64\DEBUG\\" /Fd"X64\DEBUG\VC140.PDB" /Gd /TP C:\USERS\ANDREAS\DESKTOP\VULKAN2D\VULKAN2D\SHADERHANDLER.CPP
^C:\USERS\ANDREAS\DESKTOP\VULKAN2D\VULKAN2D\SOURCE.CPP
/c /I"C:\GLFW-3.2.1.BIN.WIN64\GLFW-3.2.1.BIN.WIN64\INCLUDE" /I"C:\GLM-0.9.8.4\GLM" /IC:\VULKANSDK\1.0.46.0\INCLUDE /ZI /nologo /W3 /WX- /Od /D _DEBUG /D _CONSOLE /D _UNICODE /D UNICODE /Gm /EHsc /RTC1 /MDd /GS /fp:precise /Zc:wchar_t /Zc:forScope /Zc:inline /Fo"X64\DEBUG\\" /Fd"X64\DEBUG\VC140.PDB" /Gd /TP C:\USERS\ANDREAS\DESKTOP\VULKAN2D\VULKAN2D\SOURCE.CPP
^C:\USERS\ANDREAS\DESKTOP\VULKAN2D\VULKAN2D\TINYXML2.CPP
/c /I"C:\GLFW-3.2.1.BIN.WIN64\GLFW-3.2.1.BIN.WIN64\INCLUDE" /I"C:\GLM-0.9.8.4\GLM" /IC:\VULKANSDK\1.0.46.0\INCLUDE /ZI /nologo /W3 /WX- /Od /D _DEBUG /D _CONSOLE /D _UNICODE /D UNICODE /Gm /EHsc /RTC1 /MDd /GS /fp:precise /Zc:wchar_t /Zc:forScope /Zc:inline /Fo"X64\DEBUG\\" /Fd"X64\DEBUG\VC140.PDB" /Gd /TP C:\USERS\ANDREAS\DESKTOP\VULKAN2D\VULKAN2D\TINYXML2.CPP
^C:\USERS\ANDREAS\DESKTOP\VULKAN2D\VULKAN2D\VULKANAPIHANDLER.CPP
/c /I"C:\GLFW-3.2.1.BIN.WIN64\GLFW-3.2.1.BIN.WIN64\INCLUDE" /I"C:\GLM-0.9.8.4\GLM" /IC:\VULKANSDK\1.0.46.0\INCLUDE /ZI /nologo /W3 /WX- /Od /D _DEBUG /D _CONSOLE /D _UNICODE /D UNICODE /Gm /EHsc /RTC1 /MDd /GS /fp:precise /Zc:wchar_t /Zc:forScope /Zc:inline /Fo"X64\DEBUG\\" /Fd"X64\DEBUG\VC140.PDB" /Gd /TP C:\USERS\ANDREAS\DESKTOP\VULKAN2D\VULKAN2D\VULKANAPIHANDLER.CPP
^C:\USERS\ANDREAS\DESKTOP\VULKAN2DREADY\VULKAN2D\RENDERABLE.CPP
/c /I"C:\GLFW-3.2.1.BIN.WIN64\GLFW-3.2.1.BIN.WIN64\INCLUDE" /I"C:\GLM-0.9.8.4\GLM" /IC:\VULKANSDK\1.0.46.0\INCLUDE /ZI /nologo /W3 /WX- /Od /D _DEBUG /D _CONSOLE /D _UNICODE /D UNICODE /Gm /EHsc /RTC1 /MDd /GS /fp:precise /Zc:wchar_t /Zc:forScope /Zc:inline /Fo"X64\DEBUG\\" /Fd"X64\DEBUG\VC140.PDB" /Gd /TP C:\USERS\ANDREAS\DESKTOP\VULKAN2DREADY\VULKAN2D\RENDERABLE.CPP
^C:\USERS\ANDREAS\DESKTOP\VULKAN2DREADY\VULKAN2D\SCENE.CPP
/c /I"C:\GLFW-3.2.1.BIN.WIN64\GLFW-3.2.1.BIN.WIN64\INCLUDE" /I"C:\GLM-0.9.8.4\GLM" /IC:\VULKANSDK\1.0.46.0\INCLUDE /ZI /nologo /W3 /WX- /Od /D _DEBUG /D _CONSOLE /D _UNICODE /D UNICODE /Gm /EHsc /RTC1 /MDd /GS /fp:precise /Zc:wchar_t /Zc:forScope /Zc:inline /Fo"X64\DEBUG\\" /Fd"X64\DEBUG\VC140.PDB" /Gd /TP C:\USERS\ANDREAS\DESKTOP\VULKAN2DREADY\VULKAN2D\SCENE.CPP
^C:\USERS\ANDREAS\DESKTOP\VULKAN2DREADY\VULKAN2D\SHADERHANDLER.CPP
/c /I"C:\GLFW-3.2.1.BIN.WIN64\GLFW-3.2.1.BIN.WIN64\INCLUDE" /I"C:\GLM-0.9.8.4\GLM" /IC:\VULKANSDK\1.0.46.0\INCLUDE /ZI /nologo /W3 /WX- /Od /D _DEBUG /D _CONSOLE /D _UNICODE /D UNICODE /Gm /EHsc /RTC1 /MDd /GS /fp:precise /Zc:wchar_t /Zc:forScope /Zc:inline /Fo"X64\DEBUG\\" /Fd"X64\DEBUG\VC140.PDB" /Gd /TP C:\USERS\ANDREAS\DESKTOP\VULKAN2DREADY\VULKAN2D\SHADERHANDLER.CPP
^C:\USERS\ANDREAS\DESKTOP\VULKAN2DREADY\VULKAN2D\SOURCE.CPP
/c /I"C:\GLFW-3.2.1.BIN.WIN64\GLFW-3.2.1.BIN.WIN64\INCLUDE" /I"C:\GLM-0.9.8.4\GLM" /IC:\VULKANSDK\1.0.46.0\INCLUDE /ZI /nologo /W3 /WX- /Od /D _DEBUG /D _CONSOLE /D _UNICODE /D UNICODE /Gm /EHsc /RTC1 /MDd /GS /fp:precise /Zc:wchar_t /Zc:forScope /Zc:inline /Fo"X64\DEBUG\\" /Fd"X64\DEBUG\VC140.PDB" /Gd /TP C:\USERS\ANDREAS\DESKTOP\VULKAN2DREADY\VULKAN2D\SOURCE.CPP
^C:\USERS\ANDREAS\DESKTOP\VULKAN2DREADY\VULKAN2D\TINYXML2.CPP
/c /I"C:\GLFW-3.2.1.BIN.WIN64\GLFW-3.2.1.BIN.WIN64\INCLUDE" /I"C:\GLM-0.9.8.4\GLM" /IC:\VULKANSDK\1.0.46.0\INCLUDE /ZI /nologo /W3 /WX- /Od /D _DEBUG /D _CONSOLE /D _UNICODE /D UNICODE /Gm /EHsc /RTC1 /MDd /GS /fp:precise /Zc:wchar_t /Zc:forScope /Zc:inline /Fo"X64\DEBUG\\" /Fd"X64\DEBUG\VC140.PDB" /Gd /TP C:\USERS\ANDREAS\DESKTOP\VULKAN2DREADY\VULKAN2D\TINYXML2.CPP
^C:\USERS\ANDREAS\DESKTOP\VULKAN2DREADY\VULKAN2D\VULKANAPIHANDLER.CPP
/c /I"C:\GLFW-3.2.1.BIN.WIN64\GLFW-3.2.1.BIN.WIN64\INCLUDE" /I"C:\GLM-0.9.8.4\GLM" /IC:\VULKANSDK\1.0.46.0\INCLUDE /ZI /nologo /W3 /WX- /Od /D _DEBUG /D _CONSOLE /D _UNICODE /D UNICODE /Gm /EHsc /RTC1 /MDd /GS /fp:precise /Zc:wchar_t /Zc:forScope /Zc:inline /Fo"X64\DEBUG\\" /Fd"X64\DEBUG\VC140.PDB" /Gd /TP C:\USERS\ANDREAS\DESKTOP\VULKAN2DREADY\VULKAN2D\VULKANAPIHANDLER.CPP
^C:\USERS\ANDREAS\GIT REPOS\VULKAN PROJECTS\IMT3612_EXAM_ANDREASWANG\VULKAN\VULKANBASE\VULKAN2D\RENDERABLE.CPP
/c /I"C:\GLFW-3.2.1.BIN.WIN64\GLFW-3.2.1.BIN.WIN64\INCLUDE" /I"C:\GLM-0.9.8.4\GLM" /IC:\VULKANSDK\1.0.46.0\INCLUDE /ZI /nologo /W3 /WX- /Od /D _DEBUG /D _CONSOLE /D _UNICODE /D UNICODE /Gm /EHsc /RTC1 /MDd /GS /fp:precise /Zc:wchar_t /Zc:forScope /Zc:inline /Fo"X64\DEBUG\\" /Fd"X64\DEBUG\VC140.PDB" /Gd /TP C:\USERS\ANDREAS\GIT REPOS\VULKAN PROJECTS\IMT3612_EXAM_ANDREASWANG\VULKAN\VULKANBASE\VULKAN2D\RENDERABLE.CPP
^C:\USERS\ANDREAS\GIT REPOS\VULKAN PROJECTS\IMT3612_EXAM_ANDREASWANG\VULKAN\VULKANBASE\VULKAN2D\SCENE.CPP
/c /I"C:\GLFW-3.2.1.BIN.WIN64\GLFW-3.2.1.BIN.WIN64\INCLUDE" /I"C:\GLM-0.9.8.4\GLM" /IC:\VULKANSDK\1.0.46.0\INCLUDE /ZI /nologo /W3 /WX- /Od /D _DEBUG /D _CONSOLE /D _UNICODE /D UNICODE /Gm /EHsc /RTC1 /MDd /GS /fp:precise /Zc:wchar_t /Zc:forScope /Zc:inline /Fo"X64\DEBUG\\" /Fd"X64\DEBUG\VC140.PDB" /Gd /TP C:\USERS\ANDREAS\GIT REPOS\VULKAN PROJECTS\IMT3612_EXAM_ANDREASWANG\VULKAN\VULKANBASE\VULKAN2D\SCENE.CPP
^C:\USERS\ANDREAS\GIT REPOS\VULKAN PROJECTS\IMT3612_EXAM_ANDREASWANG\VULKAN\VULKANBASE\VULKAN2D\SHADERHANDLER.CPP
/c /I"C:\GLFW-3.2.1.BIN.WIN64\GLFW-3.2.1.BIN.WIN64\INCLUDE" /I"C:\GLM-0.9.8.4\GLM" /IC:\VULKANSDK\1.0.46.0\INCLUDE /ZI /nologo /W3 /WX- /Od /D _DEBUG /D _CONSOLE /D _UNICODE /D UNICODE /Gm /EHsc /RTC1 /MDd /GS /fp:precise /Zc:wchar_t /Zc:forScope /Zc:inline /Fo"X64\DEBUG\\" /Fd"X64\DEBUG\VC140.PDB" /Gd /TP C:\USERS\ANDREAS\GIT REPOS\VULKAN PROJECTS\IMT3612_EXAM_ANDREASWANG\VULKAN\VULKANBASE\VULKAN2D\SHADERHANDLER.CPP
^C:\USERS\ANDREAS\GIT REPOS\VULKAN PROJECTS\IMT3612_EXAM_ANDREASWANG\VULKAN\VULKANBASE\VULKAN2D\SOURCE.CPP
/c /I"C:\GLFW-3.2.1.BIN.WIN64\GLFW-3.2.1.BIN.WIN64\INCLUDE" /I"C:\GLM-0.9.8.4\GLM" /IC:\VULKANSDK\1.0.46.0\INCLUDE /ZI /nologo /W3 /WX- /Od /D _DEBUG /D _CONSOLE /D _UNICODE /D UNICODE /Gm /EHsc /RTC1 /MDd /GS /fp:precise /Zc:wchar_t /Zc:forScope /Zc:inline /Fo"X64\DEBUG\\" /Fd"X64\DEBUG\VC140.PDB" /Gd /TP C:\USERS\ANDREAS\GIT REPOS\VULKAN PROJECTS\IMT3612_EXAM_ANDREASWANG\VULKAN\VULKANBASE\VULKAN2D\SOURCE.CPP
^C:\USERS\ANDREAS\GIT REPOS\VULKAN PROJECTS\IMT3612_EXAM_ANDREASWANG\VULKAN\VULKANBASE\VULKAN2D\TINYXML2.CPP
/c /I"C:\GLFW-3.2.1.BIN.WIN64\GLFW-3.2.1.BIN.WIN64\INCLUDE" /I"C:\GLM-0.9.8.4\GLM" /IC:\VULKANSDK\1.0.46.0\INCLUDE /ZI /nologo /W3 /WX- /Od /D _DEBUG /D _CONSOLE /D _UNICODE /D UNICODE /Gm /EHsc /RTC1 /MDd /GS /fp:precise /Zc:wchar_t /Zc:forScope /Zc:inline /Fo"X64\DEBUG\\" /Fd"X64\DEBUG\VC140.PDB" /Gd /TP C:\USERS\ANDREAS\GIT REPOS\VULKAN PROJECTS\IMT3612_EXAM_ANDREASWANG\VULKAN\VULKANBASE\VULKAN2D\TINYXML2.CPP
^C:\USERS\ANDREAS\GIT REPOS\VULKAN PROJECTS\IMT3612_EXAM_ANDREASWANG\VULKAN\VULKANBASE\VULKAN2D\VULKANAPIHANDLER.CPP
/c /I"C:\GLFW-3.2.1.BIN.WIN64\GLFW-3.2.1.BIN.WIN64\INCLUDE" /I"C:\GLM-0.9.8.4\GLM" /IC:\VULKANSDK\1.0.46.0\INCLUDE /ZI /nologo /W3 /WX- /Od /D _DEBUG /D _CONSOLE /D _UNICODE /D UNICODE /Gm /EHsc /RTC1 /MDd /GS /fp:precise /Zc:wchar_t /Zc:forScope /Zc:inline /Fo"X64\DEBUG\\" /Fd"X64\DEBUG\VC140.PDB" /Gd /TP C:\USERS\ANDREAS\GIT REPOS\VULKAN PROJECTS\IMT3612_EXAM_ANDREASWANG\VULKAN\VULKANBASE\VULKAN2D\VULKANAPIHANDLER.CPP
