^C:\USERS\ANDREAS\GIT REPOS\VULKAN PROJECTS\IMT3612_EXAM_ANDREASWANG\VULKAN\VULKANBASE\VULKAN2D\RENDERABLE.CPP|C:\USERS\ANDREAS\GIT REPOS\VULKAN PROJECTS\IMT3612_EXAM_ANDREASWANG\VULKAN\VULKANBASE\VULKAN2D\SCENE.CPP|C:\USERS\ANDREAS\GIT REPOS\VULKAN PROJECTS\IMT3612_EXAM_ANDREASWANG\VULKAN\VULKANBASE\VULKAN2D\SHADERHANDLER.CPP|C:\USERS\ANDREAS\GIT REPOS\VULKAN PROJECTS\IMT3612_EXAM_ANDREASWANG\VULKAN\VULKANBASE\VULKAN2D\SOURCE.CPP|C:\USERS\ANDREAS\GIT REPOS\VULKAN PROJECTS\IMT3612_EXAM_ANDREASWANG\VULKAN\VULKANBASE\VULKAN2D\TINYXML2.CPP|C:\USERS\ANDREAS\GIT REPOS\VULKAN PROJECTS\IMT3612_EXAM_ANDREASWANG\VULKAN\VULKANBASE\VULKAN2D\VULKANAPIHANDLER.CPP
C:\USERS\ANDREAS\GIT REPOS\VULKAN PROJECTS\IMT3612_EXAM_ANDREASWANG\VULKAN\VULKANBASE\VULKAN2D\X64\DEBUG\VC140.PDB
C:\USERS\ANDREAS\GIT REPOS\VULKAN PROJECTS\IMT3612_EXAM_ANDREASWANG\VULKAN\VULKANBASE\VULKAN2D\X64\DEBUG\VC140.IDB
C:\USERS\ANDREAS\GIT REPOS\VULKAN PROJECTS\IMT3612_EXAM_ANDREASWANG\VULKAN\VULKANBASE\VULKAN2D\X64\DEBUG\RENDERABLE.OBJ
C:\USERS\ANDREAS\GIT REPOS\VULKAN PROJECTS\IMT3612_EXAM_ANDREASWANG\VULKAN\VULKANBASE\VULKAN2D\X64\DEBUG\SCENE.OBJ
C:\USERS\ANDREAS\GIT REPOS\VULKAN PROJECTS\IMT3612_EXAM_ANDREASWANG\VULKAN\VULKANBASE\VULKAN2D\X64\DEBUG\SHADERHANDLER.OBJ
C:\USERS\ANDREAS\GIT REPOS\VULKAN PROJECTS\IMT3612_EXAM_ANDREASWANG\VULKAN\VULKANBASE\VULKAN2D\X64\DEBUG\SOURCE.OBJ
C:\USERS\ANDREAS\GIT REPOS\VULKAN PROJECTS\IMT3612_EXAM_ANDREASWANG\VULKAN\VULKANBASE\VULKAN2D\X64\DEBUG\TINYXML2.OBJ
C:\USERS\ANDREAS\GIT REPOS\VULKAN PROJECTS\IMT3612_EXAM_ANDREASWANG\VULKAN\VULKANBASE\VULKAN2D\X64\DEBUG\VULKANAPIHANDLER.OBJ
^C:\USERS\ANDREAS\GIT REPOS\VULKAN PROJECTS\IMT3612_EXAM_ANDREASWANG\VULKAN\VULKANBASE\VULKAN2D\RENDERABLE.CPP
C:\USERS\ANDREAS\GIT REPOS\VULKAN PROJECTS\IMT3612_EXAM_ANDREASWANG\VULKAN\VULKANBASE\VULKAN2D\X64\DEBUG\VC140.PDB
^C:\USERS\ANDREAS\GIT REPOS\VULKAN PROJECTS\IMT3612_EXAM_ANDREASWANG\VULKAN\VULKANBASE\VULKAN2D\SCENE.CPP
C:\USERS\ANDREAS\GIT REPOS\VULKAN PROJECTS\IMT3612_EXAM_ANDREASWANG\VULKAN\VULKANBASE\VULKAN2D\X64\DEBUG\VC140.PDB
C:\USERS\ANDREAS\GIT REPOS\VULKAN PROJECTS\IMT3612_EXAM_ANDREASWANG\VULKAN\VULKANBASE\VULKAN2D\X64\DEBUG\VC140.IDB
C:\USERS\ANDREAS\GIT REPOS\VULKAN PROJECTS\IMT3612_EXAM_ANDREASWANG\VULKAN\VULKANBASE\VULKAN2D\X64\DEBUG\SCENE.OBJ
^C:\USERS\ANDREAS\GIT REPOS\VULKAN PROJECTS\IMT3612_EXAM_ANDREASWANG\VULKAN\VULKANBASE\VULKAN2D\SHADERHANDLER.CPP
C:\USERS\ANDREAS\GIT REPOS\VULKAN PROJECTS\IMT3612_EXAM_ANDREASWANG\VULKAN\VULKANBASE\VULKAN2D\X64\DEBUG\VC140.PDB
^C:\USERS\ANDREAS\GIT REPOS\VULKAN PROJECTS\IMT3612_EXAM_ANDREASWANG\VULKAN\VULKANBASE\VULKAN2D\SOURCE.CPP
C:\USERS\ANDREAS\GIT REPOS\VULKAN PROJECTS\IMT3612_EXAM_ANDREASWANG\VULKAN\VULKANBASE\VULKAN2D\X64\DEBUG\VC140.PDB
C:\USERS\ANDREAS\GIT REPOS\VULKAN PROJECTS\IMT3612_EXAM_ANDREASWANG\VULKAN\VULKANBASE\VULKAN2D\X64\DEBUG\VC140.IDB
C:\USERS\ANDREAS\GIT REPOS\VULKAN PROJECTS\IMT3612_EXAM_ANDREASWANG\VULKAN\VULKANBASE\VULKAN2D\X64\DEBUG\SOURCE.OBJ
^C:\USERS\ANDREAS\GIT REPOS\VULKAN PROJECTS\IMT3612_EXAM_ANDREASWANG\VULKAN\VULKANBASE\VULKAN2D\TINYXML2.CPP
C:\USERS\ANDREAS\GIT REPOS\VULKAN PROJECTS\IMT3612_EXAM_ANDREASWANG\VULKAN\VULKANBASE\VULKAN2D\X64\DEBUG\VC140.PDB
^C:\USERS\ANDREAS\GIT REPOS\VULKAN PROJECTS\IMT3612_EXAM_ANDREASWANG\VULKAN\VULKANBASE\VULKAN2D\VULKANAPIHANDLER.CPP
C:\USERS\ANDREAS\GIT REPOS\VULKAN PROJECTS\IMT3612_EXAM_ANDREASWANG\VULKAN\VULKANBASE\VULKAN2D\X64\DEBUG\VC140.PDB
C:\USERS\ANDREAS\GIT REPOS\VULKAN PROJECTS\IMT3612_EXAM_ANDREASWANG\VULKAN\VULKANBASE\VULKAN2D\X64\DEBUG\VC140.IDB
C:\USERS\ANDREAS\GIT REPOS\VULKAN PROJECTS\IMT3612_EXAM_ANDREASWANG\VULKAN\VULKANBASE\VULKAN2D\X64\DEBUG\VULKANAPIHANDLER.OBJ
^C:\USERS\ANDREAS\GIT REPOS\VULKAN PROJECTS\IMT3612_EXAM_ANDREASWANG\VULKAN\VULKANBASE\VULKAN2D\RENDERABLE.CPP|C:\USERS\ANDREAS\GIT REPOS\VULKAN PROJECTS\IMT3612_EXAM_ANDREASWANG\VULKAN\VULKANBASE\VULKAN2D\SCENE.CPP|C:\USERS\ANDREAS\GIT REPOS\VULKAN PROJECTS\IMT3612_EXAM_ANDREASWANG\VULKAN\VULKANBASE\VULKAN2D\SOURCE.CPP|C:\USERS\ANDREAS\GIT REPOS\VULKAN PROJECTS\IMT3612_EXAM_ANDREASWANG\VULKAN\VULKANBASE\VULKAN2D\VULKANAPIHANDLER.CPP
C:\USERS\ANDREAS\GIT REPOS\VULKAN PROJECTS\IMT3612_EXAM_ANDREASWANG\VULKAN\VULKANBASE\VULKAN2D\X64\DEBUG\VC140.PDB
C:\USERS\ANDREAS\GIT REPOS\VULKAN PROJECTS\IMT3612_EXAM_ANDREASWANG\VULKAN\VULKANBASE\VULKAN2D\X64\DEBUG\VC140.IDB
C:\USERS\ANDREAS\GIT REPOS\VULKAN PROJECTS\IMT3612_EXAM_ANDREASWANG\VULKAN\VULKANBASE\VULKAN2D\X64\DEBUG\RENDERABLE.OBJ
C:\USERS\ANDREAS\GIT REPOS\VULKAN PROJECTS\IMT3612_EXAM_ANDREASWANG\VULKAN\VULKANBASE\VULKAN2D\X64\DEBUG\SOURCE.OBJ
C:\USERS\ANDREAS\GIT REPOS\VULKAN PROJECTS\IMT3612_EXAM_ANDREASWANG\VULKAN\VULKANBASE\VULKAN2D\X64\DEBUG\VULKANAPIHANDLER.OBJ
C:\USERS\ANDREAS\GIT REPOS\VULKAN PROJECTS\IMT3612_EXAM_ANDREASWANG\VULKAN\VULKANBASE\VULKAN2D\X64\DEBUG\SCENE.OBJ
^C:\USERS\ANDREAS\GIT REPOS\VULKAN PROJECTS\IMT3612_EXAM_ANDREASWANG\VULKAN\VULKANBASE\VULKAN2D\RENDERABLE.CPP|C:\USERS\ANDREAS\GIT REPOS\VULKAN PROJECTS\IMT3612_EXAM_ANDREASWANG\VULKAN\VULKANBASE\VULKAN2D\SCENE.CPP|C:\USERS\ANDREAS\GIT REPOS\VULKAN PROJECTS\IMT3612_EXAM_ANDREASWANG\VULKAN\VULKANBASE\VULKAN2D\SOURCE.CPP
C:\USERS\ANDREAS\GIT REPOS\VULKAN PROJECTS\IMT3612_EXAM_ANDREASWANG\VULKAN\VULKANBASE\VULKAN2D\X64\DEBUG\VC140.PDB
C:\USERS\ANDREAS\GIT REPOS\VULKAN PROJECTS\IMT3612_EXAM_ANDREASWANG\VULKAN\VULKANBASE\VULKAN2D\X64\DEBUG\VC140.IDB
C:\USERS\ANDREAS\GIT REPOS\VULKAN PROJECTS\IMT3612_EXAM_ANDREASWANG\VULKAN\VULKANBASE\VULKAN2D\X64\DEBUG\RENDERABLE.OBJ
C:\USERS\ANDREAS\GIT REPOS\VULKAN PROJECTS\IMT3612_EXAM_ANDREASWANG\VULKAN\VULKANBASE\VULKAN2D\X64\DEBUG\SOURCE.OBJ
^C:\USERS\ANDREAS\GIT REPOS\VULKAN PROJECTS\IMT3612_EXAM_ANDREASWANG\VULKAN\VULKANBASE\VULKAN2D\RENDERABLE.CPP|C:\USERS\ANDREAS\GIT REPOS\VULKAN PROJECTS\IMT3612_EXAM_ANDREASWANG\VULKAN\VULKANBASE\VULKAN2D\SCENE.CPP
C:\USERS\ANDREAS\GIT REPOS\VULKAN PROJECTS\IMT3612_EXAM_ANDREASWANG\VULKAN\VULKANBASE\VULKAN2D\X64\DEBUG\VC140.PDB
C:\USERS\ANDREAS\GIT REPOS\VULKAN PROJECTS\IMT3612_EXAM_ANDREASWANG\VULKAN\VULKANBASE\VULKAN2D\X64\DEBUG\VC140.IDB
C:\USERS\ANDREAS\GIT REPOS\VULKAN PROJECTS\IMT3612_EXAM_ANDREASWANG\VULKAN\VULKANBASE\VULKAN2D\X64\DEBUG\SCENE.OBJ
