^C:\USERS\ANDREAS\GIT REPOS\VULKAN PROJECTS\IMT3612-GPU-MASTER\SHADER\TUTORIAL PROJECT\VERTEX INPUT\X64\RELEASE\COLLISIONHANDLER.OBJ|C:\USERS\ANDREAS\GIT REPOS\VULKAN PROJECTS\IMT3612-GPU-MASTER\SHADER\TUTORIAL PROJECT\VERTEX INPUT\X64\RELEASE\GHOST.OBJ|C:\USERS\ANDREAS\GIT REPOS\VULKAN PROJECTS\IMT3612-GPU-MASTER\SHADER\TUTORIAL PROJECT\VERTEX INPUT\X64\RELEASE\MOVEABLE.OBJ|C:\USERS\ANDREAS\GIT REPOS\VULKAN PROJECTS\IMT3612-GPU-MASTER\SHADER\TUTORIAL PROJECT\VERTEX INPUT\X64\RELEASE\PACMAN.OBJ|C:\USERS\ANDREAS\GIT REPOS\VULKAN PROJECTS\IMT3612-GPU-MASTER\SHADER\TUTORIAL PROJECT\VERTEX INPUT\X64\RELEASE\RENDERABLE.OBJ|C:\USERS\ANDREAS\GIT REPOS\VULKAN PROJECTS\IMT3612-GPU-MASTER\SHADER\TUTORIAL PROJECT\VERTEX INPUT\X64\RELEASE\RENDERABLEMAZE.OBJ|C:\USERS\ANDREAS\GIT REPOS\VULKAN PROJECTS\IMT3612-GPU-MASTER\SHADER\TUTORIAL PROJECT\VERTEX INPUT\X64\RELEASE\SCENE.OBJ|C:\USERS\ANDREAS\GIT REPOS\VULKAN PROJECTS\IMT3612-GPU-MASTER\SHADER\TUTORIAL PROJECT\VERTEX INPUT\X64\RELEASE\SHADERHANDLER.OBJ|C:\USERS\ANDREAS\GIT REPOS\VULKAN PROJECTS\IMT3612-GPU-MASTER\SHADER\TUTORIAL PROJECT\VERTEX INPUT\X64\RELEASE\SOURCE.OBJ|C:\USERS\ANDREAS\GIT REPOS\VULKAN PROJECTS\IMT3612-GPU-MASTER\SHADER\TUTORIAL PROJECT\VERTEX INPUT\X64\RELEASE\TINYXML2.OBJ|C:\USERS\ANDREAS\GIT REPOS\VULKAN PROJECTS\IMT3612-GPU-MASTER\SHADER\TUTORIAL PROJECT\VERTEX INPUT\X64\RELEASE\VULKANAPIHANDLER.OBJ
C:\USERS\ANDREAS\GIT REPOS\VULKAN PROJECTS\IMT3612-GPU-MASTER\SHADER\TUTORIAL PROJECT\X64\RELEASE\PACMAN 3D IN VULKAN.EXE
C:\USERS\ANDREAS\GIT REPOS\VULKAN PROJECTS\IMT3612-GPU-MASTER\SHADER\TUTORIAL PROJECT\X64\RELEASE\PACMAN 3D IN VULKAN.IPDB
C:\USERS\ANDREAS\GIT REPOS\VULKAN PROJECTS\IMT3612-GPU-MASTER\SHADER\TUTORIAL PROJECT\X64\RELEASE\PACMAN 3D IN VULKAN.IOBJ
C:\USERS\ANDREAS\GIT REPOS\VULKAN PROJECTS\IMT3612-GPU-MASTER\SHADER\TUTORIAL PROJECT\X64\RELEASE\PACMAN 3D IN VULKAN.PDB
