^C:\USERS\ANDREAS\GIT REPOS\VULKAN PROJECTS\IMT3612-GPU-MASTER\SHADER\TUTORIAL PROJECT\VERTEX INPUT\X64\DEBUG\COLLISIONHANDLER.OBJ|C:\USERS\ANDREAS\GIT REPOS\VULKAN PROJECTS\IMT3612-GPU-MASTER\SHADER\TUTORIAL PROJECT\VERTEX INPUT\X64\DEBUG\GHOST.OBJ|C:\USERS\ANDREAS\GIT REPOS\VULKAN PROJECTS\IMT3612-GPU-MASTER\SHADER\TUTORIAL PROJECT\VERTEX INPUT\X64\DEBUG\MOVEABLE.OBJ|C:\USERS\ANDREAS\GIT REPOS\VULKAN PROJECTS\IMT3612-GPU-MASTER\SHADER\TUTORIAL PROJECT\VERTEX INPUT\X64\DEBUG\PACMAN.OBJ|C:\USERS\ANDREAS\GIT REPOS\VULKAN PROJECTS\IMT3612-GPU-MASTER\SHADER\TUTORIAL PROJECT\VERTEX INPUT\X64\DEBUG\RENDERABLE.OBJ|C:\USERS\ANDREAS\GIT REPOS\VULKAN PROJECTS\IMT3612-GPU-MASTER\SHADER\TUTORIAL PROJECT\VERTEX INPUT\X64\DEBUG\RENDERABLEMAZE.OBJ|C:\USERS\ANDREAS\GIT REPOS\VULKAN PROJECTS\IMT3612-GPU-MASTER\SHADER\TUTORIAL PROJECT\VERTEX INPUT\X64\DEBUG\SCENE.OBJ|C:\USERS\ANDREAS\GIT REPOS\VULKAN PROJECTS\IMT3612-GPU-MASTER\SHADER\TUTORIAL PROJECT\VERTEX INPUT\X64\DEBUG\SHADERHANDLER.OBJ|C:\USERS\ANDREAS\GIT REPOS\VULKAN PROJECTS\IMT3612-GPU-MASTER\SHADER\TUTORIAL PROJECT\VERTEX INPUT\X64\DEBUG\SOURCE.OBJ|C:\USERS\ANDREAS\GIT REPOS\VULKAN PROJECTS\IMT3612-GPU-MASTER\SHADER\TUTORIAL PROJECT\VERTEX INPUT\X64\DEBUG\TINYXML2.OBJ|C:\USERS\ANDREAS\GIT REPOS\VULKAN PROJECTS\IMT3612-GPU-MASTER\SHADER\TUTORIAL PROJECT\VERTEX INPUT\X64\DEBUG\VULKANAPIHANDLER.OBJ
C:\USERS\ANDREAS\GIT REPOS\VULKAN PROJECTS\IMT3612-GPU-MASTER\SHADER\TUTORIAL PROJECT\X64\DEBUG\VERTEX INPUT.ILK
C:\USERS\ANDREAS\GIT REPOS\VULKAN PROJECTS\IMT3612-GPU-MASTER\SHADER\TUTORIAL PROJECT\X64\DEBUG\VERTEX INPUT.EXE
C:\USERS\ANDREAS\GIT REPOS\VULKAN PROJECTS\IMT3612-GPU-MASTER\SHADER\TUTORIAL PROJECT\X64\DEBUG\VERTEX INPUT.PDB
