^C:\USERS\ANDREAS\GIT REPOS\VULKAN PROJECTS\IMT3612-GPU-MASTER\SHADER\TUTORIAL PROJECT\VERTEX INPUT\COLLISIONHANDLER.CPP
/c /I"C:\GLFW-3.2.1.BIN.WIN64\GLFW-3.2.1.BIN.WIN64\INCLUDE" /I"C:\GLM-0.9.8.4\GLM" /IC:\VULKANSDK\1.0.39.1\INCLUDE /Zi /nologo /W3 /WX- /O2 /Oi /GL /D NDEBUG /D _CONSOLE /D _UNICODE /D UNICODE /Gm- /EHsc /MD /GS /Gy /fp:precise /Zc:wchar_t /Zc:forScope /Zc:inline /Fo"X64\RELEASE\\" /Fd"X64\RELEASE\VC140.PDB" /Gd /TP C:\USERS\ANDREAS\GIT REPOS\VULKAN PROJECTS\IMT3612-GPU-MASTER\SHADER\TUTORIAL PROJECT\VERTEX INPUT\COLLISIONHANDLER.CPP
^C:\USERS\ANDREAS\GIT REPOS\VULKAN PROJECTS\IMT3612-GPU-MASTER\SHADER\TUTORIAL PROJECT\VERTEX INPUT\GHOST.CPP
/c /I"C:\GLFW-3.2.1.BIN.WIN64\GLFW-3.2.1.BIN.WIN64\INCLUDE" /I"C:\GLM-0.9.8.4\GLM" /IC:\VULKANSDK\1.0.39.1\INCLUDE /Zi /nologo /W3 /WX- /O2 /Oi /GL /D NDEBUG /D _CONSOLE /D _UNICODE /D UNICODE /Gm- /EHsc /MD /GS /Gy /fp:precise /Zc:wchar_t /Zc:forScope /Zc:inline /Fo"X64\RELEASE\\" /Fd"X64\RELEASE\VC140.PDB" /Gd /TP C:\USERS\ANDREAS\GIT REPOS\VULKAN PROJECTS\IMT3612-GPU-MASTER\SHADER\TUTORIAL PROJECT\VERTEX INPUT\GHOST.CPP
^C:\USERS\ANDREAS\GIT REPOS\VULKAN PROJECTS\IMT3612-GPU-MASTER\SHADER\TUTORIAL PROJECT\VERTEX INPUT\MOVEABLE.CPP
/c /I"C:\GLFW-3.2.1.BIN.WIN64\GLFW-3.2.1.BIN.WIN64\INCLUDE" /I"C:\GLM-0.9.8.4\GLM" /IC:\VULKANSDK\1.0.39.1\INCLUDE /Zi /nologo /W3 /WX- /O2 /Oi /GL /D NDEBUG /D _CONSOLE /D _UNICODE /D UNICODE /Gm- /EHsc /MD /GS /Gy /fp:precise /Zc:wchar_t /Zc:forScope /Zc:inline /Fo"X64\RELEASE\\" /Fd"X64\RELEASE\VC140.PDB" /Gd /TP C:\USERS\ANDREAS\GIT REPOS\VULKAN PROJECTS\IMT3612-GPU-MASTER\SHADER\TUTORIAL PROJECT\VERTEX INPUT\MOVEABLE.CPP
^C:\USERS\ANDREAS\GIT REPOS\VULKAN PROJECTS\IMT3612-GPU-MASTER\SHADER\TUTORIAL PROJECT\VERTEX INPUT\PACMAN.CPP
/c /I"C:\GLFW-3.2.1.BIN.WIN64\GLFW-3.2.1.BIN.WIN64\INCLUDE" /I"C:\GLM-0.9.8.4\GLM" /IC:\VULKANSDK\1.0.39.1\INCLUDE /Zi /nologo /W3 /WX- /O2 /Oi /GL /D NDEBUG /D _CONSOLE /D _UNICODE /D UNICODE /Gm- /EHsc /MD /GS /Gy /fp:precise /Zc:wchar_t /Zc:forScope /Zc:inline /Fo"X64\RELEASE\\" /Fd"X64\RELEASE\VC140.PDB" /Gd /TP C:\USERS\ANDREAS\GIT REPOS\VULKAN PROJECTS\IMT3612-GPU-MASTER\SHADER\TUTORIAL PROJECT\VERTEX INPUT\PACMAN.CPP
^C:\USERS\ANDREAS\GIT REPOS\VULKAN PROJECTS\IMT3612-GPU-MASTER\SHADER\TUTORIAL PROJECT\VERTEX INPUT\RENDERABLE.CPP
/c /I"C:\GLFW-3.2.1.BIN.WIN64\GLFW-3.2.1.BIN.WIN64\INCLUDE" /I"C:\GLM-0.9.8.4\GLM" /IC:\VULKANSDK\1.0.39.1\INCLUDE /Zi /nologo /W3 /WX- /O2 /Oi /GL /D NDEBUG /D _CONSOLE /D _UNICODE /D UNICODE /Gm- /EHsc /MD /GS /Gy /fp:precise /Zc:wchar_t /Zc:forScope /Zc:inline /Fo"X64\RELEASE\\" /Fd"X64\RELEASE\VC140.PDB" /Gd /TP C:\USERS\ANDREAS\GIT REPOS\VULKAN PROJECTS\IMT3612-GPU-MASTER\SHADER\TUTORIAL PROJECT\VERTEX INPUT\RENDERABLE.CPP
^C:\USERS\ANDREAS\GIT REPOS\VULKAN PROJECTS\IMT3612-GPU-MASTER\SHADER\TUTORIAL PROJECT\VERTEX INPUT\RENDERABLEMAZE.CPP
/c /I"C:\GLFW-3.2.1.BIN.WIN64\GLFW-3.2.1.BIN.WIN64\INCLUDE" /I"C:\GLM-0.9.8.4\GLM" /IC:\VULKANSDK\1.0.39.1\INCLUDE /Zi /nologo /W3 /WX- /O2 /Oi /GL /D NDEBUG /D _CONSOLE /D _UNICODE /D UNICODE /Gm- /EHsc /MD /GS /Gy /fp:precise /Zc:wchar_t /Zc:forScope /Zc:inline /Fo"X64\RELEASE\\" /Fd"X64\RELEASE\VC140.PDB" /Gd /TP C:\USERS\ANDREAS\GIT REPOS\VULKAN PROJECTS\IMT3612-GPU-MASTER\SHADER\TUTORIAL PROJECT\VERTEX INPUT\RENDERABLEMAZE.CPP
^C:\USERS\ANDREAS\GIT REPOS\VULKAN PROJECTS\IMT3612-GPU-MASTER\SHADER\TUTORIAL PROJECT\VERTEX INPUT\SCENE.CPP
/c /I"C:\GLFW-3.2.1.BIN.WIN64\GLFW-3.2.1.BIN.WIN64\INCLUDE" /I"C:\GLM-0.9.8.4\GLM" /IC:\VULKANSDK\1.0.39.1\INCLUDE /Zi /nologo /W3 /WX- /O2 /Oi /GL /D NDEBUG /D _CONSOLE /D _UNICODE /D UNICODE /Gm- /EHsc /MD /GS /Gy /fp:precise /Zc:wchar_t /Zc:forScope /Zc:inline /Fo"X64\RELEASE\\" /Fd"X64\RELEASE\VC140.PDB" /Gd /TP C:\USERS\ANDREAS\GIT REPOS\VULKAN PROJECTS\IMT3612-GPU-MASTER\SHADER\TUTORIAL PROJECT\VERTEX INPUT\SCENE.CPP
^C:\USERS\ANDREAS\GIT REPOS\VULKAN PROJECTS\IMT3612-GPU-MASTER\SHADER\TUTORIAL PROJECT\VERTEX INPUT\SHADERHANDLER.CPP
/c /I"C:\GLFW-3.2.1.BIN.WIN64\GLFW-3.2.1.BIN.WIN64\INCLUDE" /I"C:\GLM-0.9.8.4\GLM" /IC:\VULKANSDK\1.0.39.1\INCLUDE /Zi /nologo /W3 /WX- /O2 /Oi /GL /D NDEBUG /D _CONSOLE /D _UNICODE /D UNICODE /Gm- /EHsc /MD /GS /Gy /fp:precise /Zc:wchar_t /Zc:forScope /Zc:inline /Fo"X64\RELEASE\\" /Fd"X64\RELEASE\VC140.PDB" /Gd /TP C:\USERS\ANDREAS\GIT REPOS\VULKAN PROJECTS\IMT3612-GPU-MASTER\SHADER\TUTORIAL PROJECT\VERTEX INPUT\SHADERHANDLER.CPP
^C:\USERS\ANDREAS\GIT REPOS\VULKAN PROJECTS\IMT3612-GPU-MASTER\SHADER\TUTORIAL PROJECT\VERTEX INPUT\SOURCE.CPP
/c /I"C:\GLFW-3.2.1.BIN.WIN64\GLFW-3.2.1.BIN.WIN64\INCLUDE" /I"C:\GLM-0.9.8.4\GLM" /IC:\VULKANSDK\1.0.39.1\INCLUDE /Zi /nologo /W3 /WX- /O2 /Oi /GL /D NDEBUG /D _CONSOLE /D _UNICODE /D UNICODE /Gm- /EHsc /MD /GS /Gy /fp:precise /Zc:wchar_t /Zc:forScope /Zc:inline /Fo"X64\RELEASE\\" /Fd"X64\RELEASE\VC140.PDB" /Gd /TP C:\USERS\ANDREAS\GIT REPOS\VULKAN PROJECTS\IMT3612-GPU-MASTER\SHADER\TUTORIAL PROJECT\VERTEX INPUT\SOURCE.CPP
^C:\USERS\ANDREAS\GIT REPOS\VULKAN PROJECTS\IMT3612-GPU-MASTER\SHADER\TUTORIAL PROJECT\VERTEX INPUT\TINYXML2.CPP
/c /I"C:\GLFW-3.2.1.BIN.WIN64\GLFW-3.2.1.BIN.WIN64\INCLUDE" /I"C:\GLM-0.9.8.4\GLM" /IC:\VULKANSDK\1.0.39.1\INCLUDE /Zi /nologo /W3 /WX- /O2 /Oi /GL /D NDEBUG /D _CONSOLE /D _UNICODE /D UNICODE /Gm- /EHsc /MD /GS /Gy /fp:precise /Zc:wchar_t /Zc:forScope /Zc:inline /Fo"X64\RELEASE\\" /Fd"X64\RELEASE\VC140.PDB" /Gd /TP C:\USERS\ANDREAS\GIT REPOS\VULKAN PROJECTS\IMT3612-GPU-MASTER\SHADER\TUTORIAL PROJECT\VERTEX INPUT\TINYXML2.CPP
^C:\USERS\ANDREAS\GIT REPOS\VULKAN PROJECTS\IMT3612-GPU-MASTER\SHADER\TUTORIAL PROJECT\VERTEX INPUT\VULKANAPIHANDLER.CPP
/c /I"C:\GLFW-3.2.1.BIN.WIN64\GLFW-3.2.1.BIN.WIN64\INCLUDE" /I"C:\GLM-0.9.8.4\GLM" /IC:\VULKANSDK\1.0.39.1\INCLUDE /Zi /nologo /W3 /WX- /O2 /Oi /GL /D NDEBUG /D _CONSOLE /D _UNICODE /D UNICODE /Gm- /EHsc /MD /GS /Gy /fp:precise /Zc:wchar_t /Zc:forScope /Zc:inline /Fo"X64\RELEASE\\" /Fd"X64\RELEASE\VC140.PDB" /Gd /TP C:\USERS\ANDREAS\GIT REPOS\VULKAN PROJECTS\IMT3612-GPU-MASTER\SHADER\TUTORIAL PROJECT\VERTEX INPUT\VULKANAPIHANDLER.CPP
